-------------------------------------------------------------------------------
Test set: com.kizkom.upartna.config.WebConfigurerTest
-------------------------------------------------------------------------------
Tests run: 9, Failures: 0, Errors: 0, Skipped: 0, Time elapsed: 2.925 sec - in com.kizkom.upartna.config.WebConfigurerTest
