-------------------------------------------------------------------------------
Test set: com.kizkom.upartna.web.rest.SpecialityResourceIntTest
-------------------------------------------------------------------------------
Tests run: 10, Failures: 0, Errors: 0, Skipped: 0, Time elapsed: 1.319 sec - in com.kizkom.upartna.web.rest.SpecialityResourceIntTest
