-------------------------------------------------------------------------------
Test set: com.kizkom.upartna.web.rest.errors.ExceptionTranslatorIntTest
-------------------------------------------------------------------------------
Tests run: 11, Failures: 0, Errors: 0, Skipped: 0, Time elapsed: 1.223 sec - in com.kizkom.upartna.web.rest.errors.ExceptionTranslatorIntTest
